…
``` r
#add a new column to identify the data source
prof_wheel_clean <- prof_wheel_clean %>%
  mutate(source = "Professor Trash Wheel")
prof_wheel_clean
```

    ## # A tibble: 119 × 14
    ##    dumpster month    year  date                weight_tons volume_cubic_yards
    ##       <dbl> <chr>    <chr> <dttm>                    <dbl>              <dbl>
    ##  1        1 January  2017  2017-01-02 00:00:00        1.79                 15
    ##  2        2 January  2017  2017-01-30 00:00:00        1.58                 15
    ##  3        3 February 2017  2017-02-26 00:00:00        2.32                 18
    ##  4        4 February 2017  2017-02-26 00:00:00        3.72                 15
    ##  5        5 February 2017  2017-02-28 00:00:00        1.45                 15
    ##  6        6 March    2017  2017-03-30 00:00:00        1.71                 15
    ##  7        7 April    2017  2017-04-01 00:00:00        1.82                 15
    ##  8        8 April    2017  2017-04-20 00:00:00        2.37                 15
    ##  9        9 May      2017  2017-05-10 00:00:00        2.64                 15
    ## 10       10 May      2017  2017-05-26 00:00:00        2.78                 15
    ## # ℹ 109 more rows
    ## # ℹ 8 more variables: plastic_bottles <dbl>, polystyrene <dbl>,
    ## #   cigarette_butts <dbl>, glass_bottles <dbl>, plastic_bags <dbl>,
    ## #   wrappers <dbl>, homes_powered <dbl>, source <chr>
…
    ## # A tibble: 6 × 5
    ##   Series Episode Baker     `Signature Bake`                       `Show Stopper`
    ##    <dbl>   <dbl> <chr>     <chr>                                  <chr>         
    ## 1      1       1 Annetha   Light Jamaican Black Cakewith Strawbe… Red, White & …
    ## 2      1       1 David     Chocolate Orange Cake                  Black Forest …
    ## 3      1       1 Edd       Caramel Cinnamon and Banana Cake       N/A           
    ## 4      1       1 Jasminder Fresh Mango and Passion Fruit Humming… N/A           
    ## 5      1       1 Jonathan  Carrot Cake with Lime and Cream Chees… Three Tiered …
    ## 6      1       1 Lea       Cranberry and Pistachio Cakewith Oran… Raspberries a…

``` r
print(results)
```

    ## # A tibble: 1,138 × 5
    ##    ...1   ...2    ...3      ...4      IN = stayed in; OUT = Eliminated; STAR B…¹
    ##    <chr>  <chr>   <chr>     <chr>     <chr>                                     
    ##  1 <NA>   <NA>    <NA>      <NA>      <NA>                                      
    ##  2 series episode baker     technical result                                    
    ##  3 1      1       Annetha   2         IN                                        
    ##  4 1      1       David     3         IN                                        
    ##  5 1      1       Edd       1         IN                                        
    ##  6 1      1       Jasminder <NA>      IN                                        
    ##  7 1      1       Jonathan  9         IN                                        
    ##  8 1      1       Louise    <NA>      IN                                        
    ##  9 1      1       Miranda   8         IN                                        
    ## 10 1      1       Ruth      <NA>      IN                                        
    ## # ℹ 1,128 more rows
    ## # ℹ abbreviated name:
    ## #   ¹​`IN = stayed in; OUT = Eliminated; STAR BAKER = Star Baker; WINNER = Series Winner; Runner-up = Series Runner up; WD = withdrew`

``` r
#make results dataset more readable and reasonable
results <- results %>%
  slice(-2) %>%  
  rename(series = 1, episode = 2, baker = 3, technical = 4, result = 5) %>%
  filter(!is.na(series))
print(results)
```

    ## # A tibble: 1,136 × 5
    ##    series episode baker     technical result
    ##    <chr>  <chr>   <chr>     <chr>     <chr> 
    ##  1 1      1       Annetha   2         IN    
    ##  2 1      1       David     3         IN    
    ##  3 1      1       Edd       1         IN    
    ##  4 1      1       Jasminder <NA>      IN    
    ##  5 1      1       Jonathan  9         IN    
    ##  6 1      1       Louise    <NA>      IN    
    ##  7 1      1       Miranda   8         IN    
    ##  8 1      1       Ruth      <NA>      IN    
    ##  9 1      1       Lea       10        OUT   
    ## 10 1      1       Mark      <NA>      OUT   
    ## # ℹ 1,126 more rows
``` r
#extract first names from Baker Name in `bakers`, and make data more reasonable to read
bakers_clean <- bakers %>%
  separate(`Baker Name`, into = c("First Name", "Last Name"), sep = " ", extra = "merge", fill = "right") %>%
  mutate(baker = tolower(`First Name`)) %>%
  rename(series = `Series`,
         baker_age = `Baker Age`,
         baker_occupation = `Baker Occupation`,
         hometown = `Hometown`) %>% 
  select(baker, series, baker_age, baker_occupation, hometown)

print(bakers_clean)
```

    ## # A tibble: 120 × 5
    ##    baker     series baker_age baker_occupation             hometown             
    ##    <chr>      <dbl>     <dbl> <chr>                        <chr>                
    ##  1 ali            4        25 Charity worker               Saltley, Birmingham  
    ##  2 alice         10        28 Geography teacher            Essex                
    ##  3 alvin          6        37 Nurse                        Bracknell, Berkshire 
    ##  4 amelia        10        24 Fashion designer             Halifax              
    ##  5 andrew         7        25 Aerospace engineer           Derby / Holywood, Co…
    ##  6 annetha        1        30 Midwife                      Essex                
    ##  7 antony         9        30 Banker                       London               
    ##  8 beca           4        31 Military Wives' Choir Singer Aldershot, Hampshire 
    ##  9 ben            2        31 Graphic Designer             Northampton          
    ## 10 benjamina      7        23 Teaching assistant           South London         
    ## # ℹ 110 more rows
…
print(bakes_clean)
```

    ## # A tibble: 548 × 5
    ##    series episode baker     signature_bake                          show_stopper
    ##    <chr>  <chr>   <chr>     <chr>                                   <chr>       
    ##  1 1      1       annetha   "Light Jamaican Black Cakewith Strawbe… Red, White …
    ##  2 1      1       david     "Chocolate Orange Cake"                 Black Fores…
    ##  3 1      1       edd       "Caramel Cinnamon and Banana Cake"      N/A         
    ##  4 1      1       jasminder "Fresh Mango and Passion Fruit Humming… N/A         
    ##  5 1      1       jonathan  "Carrot Cake with Lime and Cream Chees… Three Tiere…
    ##  6 1      1       lea       "Cranberry and Pistachio Cakewith Oran… Raspberries…
    ##  7 1      1       louise    "Carrot and Orange Cake"                Never Fail …
    ##  8 1      1       mark      "Sticky Marmalade Tea Loaf"             Heart-shape…
    ##  9 1      1       miranda   "Triple Layered Brownie Meringue Cake\… Three Tiere…
    ## 10 1      1       ruth      "Three Tiered Lemon Drizzle Cakewith F… Classic Cho…
    ## # ℹ 538 more rows

``` r
#clean `results` dataset
results_clean <- results %>%
  mutate(baker = tolower(baker),     
         series = tolower(series),    
         episode = as.character(episode))

print(results_clean)
```

    ## # A tibble: 1,136 × 5
    ##    series episode baker     technical result
    ##    <chr>  <chr>   <chr>     <chr>     <chr> 
    ##  1 1      1       annetha   2         IN    
    ##  2 1      1       david     3         IN    
    ##  3 1      1       edd       1         IN    
    ##  4 1      1       jasminder <NA>      IN    
    ##  5 1      1       jonathan  9         IN    
    ##  6 1      1       louise    <NA>      IN    
    ##  7 1      1       miranda   8         IN    
    ##  8 1      1       ruth      <NA>      IN    
    ##  9 1      1       lea       10        OUT   
    ## 10 1      1       mark      <NA>      OUT   
    ## # ℹ 1,126 more rows
…
the result looks good here has no unmatched data, the datasets are
complete and correct.

``` r
#merge bakers and results on baker and series
bakers_results <- full_join(bakers_clean, results_clean, by = c("baker", "series"))

#merge bakers with bakes on baker, series, and episode
final_dataset <- full_join(bakers_results, bakes_clean, by = c("baker", "series", "episode"))

#see the final dataset
print(final_dataset)
```

    ## # A tibble: 1,136 × 10
    ##    baker series baker_age baker_occupation hometown     episode technical result
    ##    <chr> <chr>      <dbl> <chr>            <chr>        <chr>   <chr>     <chr> 
    ##  1 ali   4             25 Charity worker   Saltley, Bi… 1       11        IN    
    ##  2 ali   4             25 Charity worker   Saltley, Bi… 2       9         IN    
    ##  3 ali   4             25 Charity worker   Saltley, Bi… 3       5         IN    
    ##  4 ali   4             25 Charity worker   Saltley, Bi… 4       8         OUT   
    ##  5 ali   4             25 Charity worker   Saltley, Bi… 5       <NA>      <NA>  
    ##  6 ali   4             25 Charity worker   Saltley, Bi… 6       <NA>      <NA>  
    ##  7 ali   4             25 Charity worker   Saltley, Bi… 7       <NA>      <NA>  
    ##  8 ali   4             25 Charity worker   Saltley, Bi… 8       <NA>      <NA>  
    ##  9 ali   4             25 Charity worker   Saltley, Bi… 9       <NA>      <NA>  
    ## 10 ali   4             25 Charity worker   Saltley, Bi… 10      <NA>      <NA>  
    ## # ℹ 1,126 more rows
    ## # ℹ 2 more variables: signature_bake <chr>, show_stopper <chr>
…
``` r
#filter the final dataset for Seasons 5 through 10 and extract star bakers or winners
star_bakers <- final_dataset %>%
  filter(series %in% c(5, 6, 7, 8, 9, 10)) %>%
  filter(result == "STAR BAKER" | result == "WINNER") %>%
  mutate(series = as.numeric(series)) %>%  
  select(series, episode, baker, result) %>%
  arrange(series, episode)  %>%
  mutate(series = as.character(series))

#see the star baker or winner table
print(star_bakers)
```

    ## # A tibble: 60 × 4
    ##    series episode baker   result    
    ##    <chr>  <chr>   <chr>   <chr>     
    ##  1 5      1       nancy   STAR BAKER
    ##  2 5      10      nancy   WINNER    
    ##  3 5      2       richard STAR BAKER
    ##  4 5      3       luis    STAR BAKER
    ##  5 5      4       richard STAR BAKER
    ##  6 5      5       kate    STAR BAKER
    ##  7 5      6       chetna  STAR BAKER
    ##  8 5      7       richard STAR BAKER
    ##  9 5      8       richard STAR BAKER
    ## 10 5      9       richard STAR BAKER
    ## # ℹ 50 more rows
…
